[
  {
    "id": "1",
    "title": "A Book",
    "imageUrl": "https://www.publicdomainpictures.net/pictures/10000/velka/1-1210009435EGmE.jpg",
    "description": "This is an awesome book!",
    "price": 19
  },
  {
    "id": "300",
    "title": "tesst",
    "price": 99,
    "imageUrl": "https://encrypted-tbn0.gstatic.com/images?q=tbn:ANd9GcROc6WHZT9Ew_QljJqWPNO6-cv7rn3ViMQm7A&usqp=CAU",
    "description": "fjadskfhalsfaldf"
  }
]
